{
    "type": "object",
    "properties": {
      "expand": {
        "type": "string"
      },
      "self": {
        "type": "string"
      },
      "id": {
        "type": "string"
      },
      "key": {
        "type": "string"
      },
      "description": {
        "type": "string"
      },
      "lead": {
        "type": "object",
        "properties": {
          "self": {
            "type": "string"
          },
          "accountId": {
            "type": "string"
          },
          "avatarUrls": {
            "type": "object",
            "properties": {
              "48x48": {
                "type": "string"
              },
              "24x24": {
                "type": "string"
              },
              "16x16": {
                "type": "string"
              },
              "32x32": {
                "type": "string"
              }
            },
            "required": [
              "48x48",
              "24x24",
              "16x16",
              "32x32"
            ]
          },
          "displayName": {
            "type": "string"
          },
          "active": {
            "type": "boolean"
          }
        },
        "required": [
          "self",
          "accountId",
          "avatarUrls",
          "displayName",
          "active"
        ]
      },
      "components": {
        "type": "array",
        "items": [
          {
            "type": "object",
            "properties": {
              "self": {
                "type": "string"
              },
              "id": {
                "type": "string"
              },
              "name": {
                "type": "string"
              },
              "description": {
                "type": "string"
              },
              "isAssigneeTypeValid": {
                "type": "boolean"
              }
            },
            "required": [
              "self",
              "id",
              "name",
              "description",
              "isAssigneeTypeValid"
            ]
          }
        ]
      },
      "issueTypes": {
        "type": "array",
        "items": [
          {
            "type": "object",
            "properties": {
              "self": {
                "type": "string"
              },
              "id": {
                "type": "string"
              },
              "description": {
                "type": "string"
              },
              "iconUrl": {
                "type": "string"
              },
              "name": {
                "type": "string"
              },
              "subtask": {
                "type": "boolean"
              },
              "avatarId": {
                "type": "integer"
              }
            },
            "required": [
              "self",
              "id",
              "description",
              "iconUrl",
              "name",
              "subtask",
              "avatarId"
            ]
          },
          {
            "type": "object",
            "properties": {
              "self": {
                "type": "string"
              },
              "id": {
                "type": "string"
              },
              "description": {
                "type": "string"
              },
              "iconUrl": {
                "type": "string"
              },
              "name": {
                "type": "string"
              },
              "subtask": {
                "type": "boolean"
              },
              "avatarId": {
                "type": "integer"
              }
            },
            "required": [
              "self",
              "id",
              "description",
              "iconUrl",
              "name",
              "subtask",
              "avatarId"
            ]
          },
          {
            "type": "object",
            "properties": {
              "self": {
                "type": "string"
              },
              "id": {
                "type": "string"
              },
              "description": {
                "type": "string"
              },
              "iconUrl": {
                "type": "string"
              },
              "name": {
                "type": "string"
              },
              "subtask": {
                "type": "boolean"
              },
              "avatarId": {
                "type": "integer"
              }
            },
            "required": [
              "self",
              "id",
              "description",
              "iconUrl",
              "name",
              "subtask",
              "avatarId"
            ]
          }
        ]
      },
      "assigneeType": {
        "type": "string"
      },
      "versions": {
        "type": "array",
        "items": {}
      },
      "name": {
        "type": "string"
      },
      "roles": {
        "type": "object",
        "properties": {
          "atlassian-addons-project-access": {
            "type": "string"
          },
          "Administrator": {
            "type": "string"
          },
          "Viewer": {
            "type": "string"
          },
          "Member": {
            "type": "string"
          }
        },
        "required": [
          "atlassian-addons-project-access"
        ]
      },
      "avatarUrls": {
        "type": "object",
        "properties": {
          "48x48": {
            "type": "string"
          },
          "24x24": {
            "type": "string"
          },
          "16x16": {
            "type": "string"
          },
          "32x32": {
            "type": "string"
          }
        },
        "required": [
          "48x48",
          "24x24",
          "16x16",
          "32x32"
        ]
      },
      "projectTypeKey": {
        "type": "string"
      },
      "simplified": {
        "type": "boolean"
      },
      "style": {
        "type": "string"
      },
      "isPrivate": {
        "type": "boolean"
      },
      "properties": {
        "type": "object"
      },
      "entityId": {
        "type": "string"
      },
      "uuid": {
        "type": "string"
      }
    },
    "required": [
      "expand",
      "self",
      "id",
      "key",
      "description",
      "lead",
      "components",
      "issueTypes",
      "assigneeType",
      "versions",
      "name",
      "roles",
      "avatarUrls",
      "projectTypeKey",
      "simplified",
      "style",
      "isPrivate",
      "properties"
    ]
  }