{
    "type": "object",
    "properties": {
      "self": {
        "type": "string"
      },
      "name": {
        "type": "string"
      },
      "id": {
        "type": "integer"
      },
      "description": {
        "type": "string"
      }
    },
    "required": [
      "self",
      "name",
      "id",
      "description"
    ]
}