{
    "id": "https://docs.atlassian.com/jira/REST/schema/issue-type-create#",
    "title": "Issue Type Create",
    "type": "object",
    "properties": {
        "id": {
            "type":"string"
        },
        "iconUrl": {
            "type":"string"
        },
        "subtask": {
            "type":"boolean"
        },
        "avatarId":{
            "type":"integer"
        },
        "self":{
            "type":"string"
        },
        "untranslatedName": {
            "type":"string"
        },
        "name": {
            "type": "string"
        },
        "description": {
            "type": "string"
        },
        "type": {
            "type": "string",
            "enum": [
                "subtask",
                "standard"
            ]
        }
    },
    "additionalProperties": false
}