{
    "title": "Dashboard",
    "type": "object",
    "properties": {
        "description": {
            "type": "string"
        },
        "id": {
            "type": "string"
        },
        "isFavourite": {
            "type": "boolean"
        },
        "name": {
            "type": "string"
        },
        "owner": {
            "type": "object"
        },
        "popularity": {
            "type": "number"
        },
        "self": {
            "type": "string"
        },
        "sharePermissions": {
            "type": "array"
        },
        "view": {
            "type": "string"
        }
    },
    "additionalProperties": false
}